<svg xmlns="http://www.w3.org/2000/svg" height="512" width="512" viewBox="0 0 512 512">
  <g fill-rule="evenodd">
    <path fill="red" d="M0 0h512v512H0z"/>
    <path fill="#009a00" d="M63.653 88.407h384.72v335.15H63.653z"/>
    <path d="M63.653 423.56h384.72L256.013 256 63.653 423.56z" fill="#ffca00"/>
    <path d="M63.653 88.485l192.36 167.56 192.36-167.56H63.653z" fill="#ffca00"/>
    <path fill="#ffce00" d="M97.47 64.865L79.94 52.363l-17.554 12.47 6.474-20.532-17.277-12.838 21.524-.19L79.98 10.87l6.83 20.416 21.525.226L91.028 44.32m182.205 21.066l-17.532-12.5-17.552 12.47 6.474-20.534-17.277-12.838 21.524-.19 6.87-20.404 6.833 20.417 21.524.227-17.307 12.808m182.32 20.261l-17.53-12.5-17.554 12.47L420.5 44.54 403.223 31.7l21.524-.188 6.872-20.405 6.83 20.417 21.525.227-17.307 12.81M97.47 499.166l-17.53-12.502-17.554 12.47 6.474-20.532-17.277-12.84 21.524-.188 6.872-20.404 6.83 20.417 21.525.226-17.307 12.808m182.206 21.065L255.7 487.184l-17.552 12.47 6.474-20.532-17.277-12.84 21.524-.188 6.87-20.404 6.833 20.417 21.524.226-17.307 12.808m182.321 20.265l-17.53-12.502-17.554 12.47 6.474-20.532-17.277-12.84 21.524-.188 6.872-20.404 6.83 20.417 21.525.226-17.307 12.808"/>
    <path d="M302.158 258.59a46.654 46.654 0 1 1-93.308 0 46.654 46.654 0 1 1 93.308 0z" fill="red"/>
    <path fill="#ffce00" d="M276.576 287.296l-20.823-14.848-20.848 14.812 7.69-24.388-20.522-15.25 25.566-.223 8.16-24.237 8.115 24.25 25.566.27-20.556 15.212"/>
    <path d="M89.21 290.95s2.368-19.607 1.016-32.79c-1.353-13.185-35.158-16.904-35.158-16.904l-.338 30.763s27.045 21.973 34.48 18.93z" fill="red"/>
    <path d="M39.855 213.2s3.258 17.276-1.352 51.723c-2.463 18.703 17.917 31.44 42.933 37.186-5.07-8.79-18.592-22.99-15.212-49.02 18.255 2.367 35.495 37.863 35.495 37.863s13.657-50.33-13.86-58.145c-26.745-7.514-48.005-19.27-48.005-19.607z" fill="#ffce00"/>
  </g>
</svg>
-13.003-54.547c-25.09-7.05-45.033-18.077-45.033-18.394z" fill="#ffce00"/>
  </g>
</svg>
