<svg xmlns="http://www.w3.org/2000/svg" height="512" width="512" viewBox="0 0 512 512">
  <defs>
    <clipPath id="a">
      <path fill-opacity=".67" d="M0 0h512v512H0z"/>
    </clipPath>
  </defs>
  <g fill-rule="evenodd" clip-path="url(#a)">
    <path fill="#fff" d="M610.61 511.56h-730.17v-512h730.17z"/>
    <path d="M251.871 256.021a112.507 112.507 0 1 1-225.014 0 112.507 112.507 0 1 1 225.014 0z" fill="#fff"/>
    <path d="M393.011 262.55a145.262 146.803 0 1 1-290.523 0 145.262 146.803 0 1 1 290.523 0z" fill="#c70000"/>
    <path d="M-49.417 126.44l83.66-96.77 19.821 17.135-83.66 96.771zM-22.018 150.127l83.66-96.77 19.82 17.135-83.66 96.77z"/>
    <path d="M-49.417 126.44l83.66-96.77 19.821 17.135-83.66 96.771z"/>
    <path d="M-49.417 126.44l83.66-96.77 19.821 17.135-83.66 96.771zM5.967 174.32l83.66-96.77 19.82 17.136-83.66 96.77z"/>
    <path d="M-49.417 126.44l83.66-96.77 19.821 17.135-83.66 96.771z"/>
    <path d="M-49.417 126.44l83.66-96.77 19.821 17.135-83.66 96.771zM459.413 29.638l83.002 97.335-19.937 17-83.002-97.334zM403.707 77.141l83.002 97.335-19.936 17-83.002-97.334z"/>
    <path d="M417.55 133.19l78.602-67.814 14.641 16.953-83.996 75.519-9.247-24.659z" fill="#fff"/>
    <path d="M514.228 372.013l-80.416 95.829-19.716-16.4 80.417-95.828zM431.853 53.14l83.002 97.334-19.936 17.001-83.002-97.334zM541.475 394.676l-80.417 95.829-19.715-16.399 80.417-95.829zM486.39 348.857l-80.417 95.83-19.715-16.4 80.416-95.829z"/>
    <path d="M104.6 236.68c4.592 36.974 11.297 78.175 68.199 82.455 21.328 1.278 62.817-5.074 77.061-63.19 18.688-55.829 74.975-71.88 113.28-41.613 21.718 14.166 27.727 36.666 29.283 53.557-1.739 54.243-32.874 101.2-72.823 122.14-45.93 27.3-109.56 27.87-165.3-13.49-25.12-23.57-60.219-67.02-49.7-139.86z" fill="#3d5897"/>
    <path d="M435.91 370.59l78.734 67.661-14.591 16.997-87.156-71.851 23.013-12.807z" fill="#fff"/>
    <path d="M-1.887 357.197l83.002 97.335-19.937 17-83.002-97.334z"/>
    <path d="M-16.188 437.25l78.602-67.814 14.641 16.953-83.996 75.519-9.247-24.659z" fill="#fff"/>
    <path d="M25.672 333.696l83.003 97.334-19.937 17-83.002-97.334zM-30.033 381.199l83.002 97.334-19.936 17L-49.97 398.2z"/>
  </g>
</svg>
M-16.188 437.25l78.602-67.814 14.641 16.953-83.996 75.519-9.247-24.659z" fill="#fff"/>
    <path d="M25.672 333.696l83.003 97.334-19.937 17-83.002-97.334zM-30.033 381.199l83.002 97.334-19.936 17L-49.97 398.2z"/>
  </g>
</svg>
