<svg xmlns="http://www.w3.org/2000/svg" height="512" width="512" viewBox="0 0 512 512">
  <defs>
    <clipPath id="a">
      <path fill-opacity=".67" d="M135.64 0H631.7v496.06H135.64z"/>
    </clipPath>
  </defs>
  <g fill-rule="evenodd" clip-path="url(#a)" transform="translate(-140) scale(1.0321)" stroke-width="1pt">
    <path fill="#002170" d="M0 0h992.13v496.06H0z"/>
    <path fill="#ffb20d" d="M0 226.82h992.13v42.42H0z"/>
    <path fill="#fff" d="M292.413 424.352l-31.89-31.944-10.275 43.95-11.634-43.613-30.883 32.92 11.73-43.588-43.202 13.078 31.946-31.883-43.952-10.282 43.613-11.635-32.928-30.881 43.588 11.73L205.456 279l31.883 31.945 10.283-43.952 11.634 43.614 30.874-32.92-11.722 43.588 43.203-13.078-31.954 31.884 43.952 10.282L289.995 362l32.929 30.881-43.589-11.73z"/>
  </g>
</svg>
>
</svg>
